<?xml version="1.0" encoding="UTF-8"?>
<session version="1.0">
<refactoring comment="Rename resource &apos;manycore_3x3_app/src/manycore_2x2_app.c&apos; to &apos;manycore_3x3_app.c&apos;" description="Rename resource &apos;manycore_2x2_app.c&apos;" flags="7" id="org.eclipse.ltk.core.refactoring.rename.resource" input="src/manycore_2x2_app.c" name="manycore_3x3_app.c" stamp="1584801900909" updateReferences="true"/>
</session>