Copyright 1986-2019 Xilinx, Inc. All Rights Reserved.
-------------------------------------------------------------------------------------------------------------------------------------------
| Tool Version : Vivado v.2019.1 (win64) Build 2552052 Fri May 24 14:49:42 MDT 2019
| Date         : Mon Mar 23 16:57:32 2020
| Host         : DESKTOP-LI95D4J running 64-bit major release  (build 9200)
| Command      : report_utilization -file manycore_3x3_dia_wrapper_utilization_synth.rpt -pb manycore_3x3_dia_wrapper_utilization_synth.pb
| Design       : manycore_3x3_dia_wrapper
| Device       : xczu7evffvc1156-2
| Design State : Synthesized
-------------------------------------------------------------------------------------------------------------------------------------------

Utilization Design Information

Table of Contents
-----------------
1. CLB Logic
1.1 Summary of Registers by Type
2. BLOCKRAM
3. ARITHMETIC
4. I/O
5. CLOCK
6. ADVANCED
7. CONFIGURATION
8. Primitives
9. Black Boxes
10. Instantiated Netlists

1. CLB Logic
------------

+-------------------------+------+-------+-----------+-------+
|        Site Type        | Used | Fixed | Available | Util% |
+-------------------------+------+-------+-----------+-------+
| CLB LUTs*               |    0 |     0 |    230400 |  0.00 |
|   LUT as Logic          |    0 |     0 |    230400 |  0.00 |
|   LUT as Memory         |    0 |     0 |    101760 |  0.00 |
| CLB Registers           |    0 |     0 |    460800 |  0.00 |
|   Register as Flip Flop |    0 |     0 |    460800 |  0.00 |
|   Register as Latch     |    0 |     0 |    460800 |  0.00 |
| CARRY8                  |    0 |     0 |     28800 |  0.00 |
| F7 Muxes                |    0 |     0 |    115200 |  0.00 |
| F8 Muxes                |    0 |     0 |     57600 |  0.00 |
| F9 Muxes                |    0 |     0 |     28800 |  0.00 |
+-------------------------+------+-------+-----------+-------+
* Warning! The Final LUT count, after physical optimizations and full implementation, is typically lower. Run opt_design after synthesis, if not already completed, for a more realistic count.


1.1 Summary of Registers by Type
--------------------------------

+-------+--------------+-------------+--------------+
| Total | Clock Enable | Synchronous | Asynchronous |
+-------+--------------+-------------+--------------+
| 0     |            _ |           - |            - |
| 0     |            _ |           - |          Set |
| 0     |            _ |           - |        Reset |
| 0     |            _ |         Set |            - |
| 0     |            _ |       Reset |            - |
| 0     |          Yes |           - |            - |
| 0     |          Yes |           - |          Set |
| 0     |          Yes |           - |        Reset |
| 0     |          Yes |         Set |            - |
| 0     |          Yes |       Reset |            - |
+-------+--------------+-------------+--------------+


2. BLOCKRAM
-----------

+----------------+------+-------+-----------+-------+
|    Site Type   | Used | Fixed | Available | Util% |
+----------------+------+-------+-----------+-------+
| Block RAM Tile |    0 |     0 |       312 |  0.00 |
|   RAMB36/FIFO* |    0 |     0 |       312 |  0.00 |
|   RAMB18       |    0 |     0 |       624 |  0.00 |
| URAM           |    0 |     0 |        96 |  0.00 |
+----------------+------+-------+-----------+-------+
* Note: Each Block RAM Tile only has one FIFO logic available and therefore can accommodate only one FIFO36E2 or one FIFO18E2. However, if a FIFO18E2 occupies a Block RAM Tile, that tile can still accommodate a RAMB18E2


3. ARITHMETIC
-------------

+-----------+------+-------+-----------+-------+
| Site Type | Used | Fixed | Available | Util% |
+-----------+------+-------+-----------+-------+
| DSPs      |    0 |     0 |      1728 |  0.00 |
+-----------+------+-------+-----------+-------+


4. I/O
------

+------------+------+-------+-----------+-------+
|  Site Type | Used | Fixed | Available | Util% |
+------------+------+-------+-----------+-------+
| Bonded IOB |    1 |     0 |       360 |  0.28 |
+------------+------+-------+-----------+-------+


5. CLOCK
--------

+----------------------+------+-------+-----------+-------+
|       Site Type      | Used | Fixed | Available | Util% |
+----------------------+------+-------+-----------+-------+
| GLOBAL CLOCK BUFFERs |    0 |     0 |       544 |  0.00 |
|   BUFGCE             |    0 |     0 |       208 |  0.00 |
|   BUFGCE_DIV         |    0 |     0 |        32 |  0.00 |
|   BUFG_GT            |    0 |     0 |       144 |  0.00 |
|   BUFG_PS            |    0 |     0 |        96 |  0.00 |
|   BUFGCTRL*          |    0 |     0 |        64 |  0.00 |
| PLL                  |    0 |     0 |        16 |  0.00 |
| MMCM                 |    0 |     0 |         8 |  0.00 |
+----------------------+------+-------+-----------+-------+
* Note: Each used BUFGCTRL counts as two GLOBAL CLOCK BUFFERs. This table does not include global clocking resources, only buffer cell usage. See the Clock Utilization Report (report_clock_utilization) for detailed accounting of global clocking resource availability.


6. ADVANCED
-----------

+-----------------+------+-------+-----------+-------+
|    Site Type    | Used | Fixed | Available | Util% |
+-----------------+------+-------+-----------+-------+
| GTHE4_CHANNEL   |    0 |     0 |        20 |  0.00 |
| GTHE4_COMMON    |    0 |     0 |         5 |  0.00 |
| OBUFDS_GTE4     |    0 |     0 |        10 |  0.00 |
| OBUFDS_GTE4_ADV |    0 |     0 |        10 |  0.00 |
| PCIE40E4        |    0 |     0 |         2 |  0.00 |
| PS8             |    0 |     0 |         1 |  0.00 |
| SYSMONE4        |    0 |     0 |         1 |  0.00 |
| VCU             |    0 |     0 |         1 |  0.00 |
+-----------------+------+-------+-----------+-------+


7. CONFIGURATION
----------------

+-------------+------+-------+-----------+-------+
|  Site Type  | Used | Fixed | Available | Util% |
+-------------+------+-------+-----------+-------+
| BSCANE2     |    0 |     0 |         4 |  0.00 |
| DNA_PORTE2  |    0 |     0 |         1 |  0.00 |
| EFUSE_USR   |    0 |     0 |         1 |  0.00 |
| FRAME_ECCE4 |    0 |     0 |         1 |  0.00 |
| ICAPE3      |    0 |     0 |         2 |  0.00 |
| MASTER_JTAG |    0 |     0 |         1 |  0.00 |
| STARTUPE3   |    0 |     0 |         1 |  0.00 |
+-------------+------+-------+-----------+-------+


8. Primitives
-------------

+----------+------+---------------------+
| Ref Name | Used | Functional Category |
+----------+------+---------------------+
| INBUF    |    1 |                 I/O |
| IBUFCTRL |    1 |              Others |
+----------+------+---------------------+


9. Black Boxes
--------------

+---------------------------------------+------+
|                Ref Name               | Used |
+---------------------------------------+------+
| manycore_3x3_dia_zynq_ultra_ps_e_0_0  |    1 |
| manycore_3x3_dia_xbar_0               |    1 |
| manycore_3x3_dia_rst_ps8_0_100M_0     |    1 |
| manycore_3x3_dia_rst_clk_wiz_100M_0   |    1 |
| manycore_3x3_dia_manycore_3x3_0_0     |    1 |
| manycore_3x3_dia_clk_wiz_0            |    1 |
| manycore_3x3_dia_auto_pc_0            |    1 |
| manycore_3x3_dia_auto_ds_0            |    1 |
| manycore_3x3_dia_auto_cc_8            |    1 |
| manycore_3x3_dia_auto_cc_7            |    1 |
| manycore_3x3_dia_auto_cc_6            |    1 |
| manycore_3x3_dia_auto_cc_5            |    1 |
| manycore_3x3_dia_auto_cc_4            |    1 |
| manycore_3x3_dia_auto_cc_3            |    1 |
| manycore_3x3_dia_auto_cc_2            |    1 |
| manycore_3x3_dia_auto_cc_1            |    1 |
| manycore_3x3_dia_auto_cc_0            |    1 |
| manycore_3x3_dia_AXI_PM_Interface_8_0 |    1 |
| manycore_3x3_dia_AXI_PM_Interface_7_0 |    1 |
| manycore_3x3_dia_AXI_PM_Interface_6_0 |    1 |
| manycore_3x3_dia_AXI_PM_Interface_5_0 |    1 |
| manycore_3x3_dia_AXI_PM_Interface_4_0 |    1 |
| manycore_3x3_dia_AXI_PM_Interface_3_0 |    1 |
| manycore_3x3_dia_AXI_PM_Interface_2_0 |    1 |
| manycore_3x3_dia_AXI_PM_Interface_1_0 |    1 |
| manycore_3x3_dia_AXI_PM_Interface_0_0 |    1 |
+---------------------------------------+------+


10. Instantiated Netlists
-------------------------

+----------+------+
| Ref Name | Used |
+----------+------+


