Copyright 1986-2019 Xilinx, Inc. All Rights Reserved.
----------------------------------------------------------------------------------------------------------------------------------------------------------------------------------------------
| Tool Version     : Vivado v.2019.1 (win64) Build 2552052 Fri May 24 14:49:42 MDT 2019
| Date             : Mon Mar 23 17:23:15 2020
| Host             : DESKTOP-LI95D4J running 64-bit major release  (build 9200)
| Command          : report_power -file manycore_3x3_dia_wrapper_power_routed.rpt -pb manycore_3x3_dia_wrapper_power_summary_routed.pb -rpx manycore_3x3_dia_wrapper_power_routed.rpx
| Design           : manycore_3x3_dia_wrapper
| Device           : xczu7ev-ffvc1156-2-e
| Design State     : routed
| Grade            : extended
| Process          : typical
| Characterization : Production
----------------------------------------------------------------------------------------------------------------------------------------------------------------------------------------------

Power Report

Table of Contents
-----------------
1. Summary
1.1 On-Chip Components
1.2 Power Supply Summary
1.3 Confidence Level
2. Settings
2.1 Environment
2.2 Clock Constraints
3. Detailed Reports
3.1 By Hierarchy

1. Summary
----------

+--------------------------+--------------+
| Total On-Chip Power (W)  | 4.039        |
| Design Power Budget (W)  | Unspecified* |
| Power Budget Margin (W)  | NA           |
| Dynamic (W)              | 3.341        |
| Device Static (W)        | 0.698        |
| Effective TJA (C/W)      | 1.0          |
| Max Ambient (C)          | 96.1         |
| Junction Temperature (C) | 28.9         |
| Confidence Level         | Low          |
| Setting File             | ---          |
| Simulation Activity File | ---          |
| Design Nets Matched      | NA           |
+--------------------------+--------------+
* Specify Design Power Budget using, set_operating_conditions -design_power_budget <value in Watts>


1.1 On-Chip Components
----------------------

+--------------------------+-----------+----------+-----------+-----------------+
| On-Chip                  | Power (W) | Used     | Available | Utilization (%) |
+--------------------------+-----------+----------+-----------+-----------------+
| Clocks                   |     0.081 |        5 |       --- |             --- |
| CLB Logic                |     0.181 |    83035 |       --- |             --- |
|   LUT as Distributed RAM |     0.102 |    19640 |    101760 |           19.30 |
|   LUT as Logic           |     0.074 |    28520 |    230400 |           12.38 |
|   Register               |     0.002 |    26933 |    460800 |            5.84 |
|   CARRY8                 |     0.002 |      599 |     28800 |            2.08 |
|   LUT as Shift Register  |    <0.001 |       47 |    101760 |            0.05 |
|   BUFG                   |    <0.001 |       10 |        64 |           15.63 |
|   Others                 |     0.000 |      933 |       --- |             --- |
|   F7/F8 Muxes            |     0.000 |     2191 |    230400 |            0.95 |
| Signals                  |     0.208 |    73055 |       --- |             --- |
| Block RAM                |     0.079 |      261 |       312 |           83.65 |
| MMCM                     |     0.097 |        0 |       --- |             --- |
| DSPs                     |     0.021 |       36 |      1728 |            2.08 |
| I/O                      |    <0.001 |        1 |       360 |            0.28 |
| PS8                      |     2.674 |        1 |       --- |             --- |
| Static Power             |     0.698 |          |           |                 |
|   PS Static              |     0.099 |          |           |                 |
|   PL Static              |     0.599 |          |           |                 |
| Total                    |     4.039 |          |           |                 |
+--------------------------+-----------+----------+-----------+-----------------+


1.2 Power Supply Summary
------------------------

+-----------------+-------------+-----------+-------------+------------+
| Source          | Voltage (V) | Total (A) | Dynamic (A) | Static (A) |
+-----------------+-------------+-----------+-------------+------------+
| Vccint          |       0.850 |     0.828 |       0.670 |      0.157 |
| Vccint_io       |       0.850 |     0.071 |       0.000 |      0.071 |
| Vccbram         |       0.850 |     0.002 |       0.000 |      0.002 |
| Vccaux          |       1.800 |     0.201 |       0.054 |      0.147 |
| Vccaux_io       |       1.800 |     0.055 |       0.000 |      0.055 |
| Vcco33          |       3.300 |     0.000 |       0.000 |      0.000 |
| Vcco25          |       2.500 |     0.000 |       0.000 |      0.000 |
| Vcco18          |       1.800 |     0.000 |       0.000 |      0.000 |
| Vcco15          |       1.500 |     0.000 |       0.000 |      0.000 |
| Vcco135         |       1.350 |     0.000 |       0.000 |      0.000 |
| Vcco12          |       1.200 |     0.000 |       0.000 |      0.000 |
| Vcco10          |       1.000 |     0.000 |       0.000 |      0.000 |
| Vccadc          |       1.800 |     0.008 |       0.000 |      0.008 |
| VCC_PSINTFP     |       0.850 |     1.067 |       1.032 |      0.035 |
| VCC_PSINTLP     |       0.850 |     0.275 |       0.268 |      0.007 |
| VPS_MGTRAVCC    |       0.850 |     0.139 |       0.138 |      0.001 |
| VCC_PSINTFP_DDR |       0.850 |     0.690 |       0.685 |      0.004 |
| VCC_PSPLL       |       1.200 |     0.073 |       0.071 |      0.002 |
| VPS_MGTRAVTT    |       1.800 |     0.034 |       0.033 |      0.001 |
| VCCO_PSDDR_504  |       1.200 |     0.620 |       0.586 |      0.034 |
| VCC_PSAUX       |       1.800 |     0.002 |       0.000 |      0.002 |
| VCC_PSBATT      |       1.200 |     0.000 |       0.000 |      0.000 |
| VCC_PSDDR_PLL   |       1.800 |     0.012 |       0.011 |      0.001 |
| VCCO_PSIO0_500  |       1.800 |     0.001 |       0.000 |      0.001 |
| VCCO_PSIO1_501  |       1.800 |     0.001 |       0.000 |      0.001 |
| VCCO_PSIO2_502  |       1.800 |     0.001 |       0.000 |      0.001 |
| VCCO_PSIO3_503  |       3.300 |     0.001 |       0.000 |      0.001 |
| VCC_PSADC       |       1.800 |     0.002 |       0.000 |      0.002 |
| VCCINT_VCU      |       0.900 |     0.028 |       0.000 |      0.028 |
| MGTAVcc         |       0.900 |     0.000 |       0.000 |      0.000 |
| MGTAVtt         |       1.200 |     0.000 |       0.000 |      0.000 |
| MGTVccaux       |       1.800 |     0.000 |       0.000 |      0.000 |
+-----------------+-------------+-----------+-------------+------------+


1.3 Confidence Level
--------------------

+-----------------------------+------------+--------------------------------------------------------+------------------------------------------------------------------------------------------------------------+
| User Input Data             | Confidence | Details                                                | Action                                                                                                     |
+-----------------------------+------------+--------------------------------------------------------+------------------------------------------------------------------------------------------------------------+
| Design implementation state | High       | Design is routed                                       |                                                                                                            |
| Clock nodes activity        | High       | User specified more than 95% of clocks                 |                                                                                                            |
| I/O nodes activity          | Low        | More than 75% of inputs are missing user specification | Provide missing input activity with simulation results or by editing the "By Resource Type -> I/Os" view   |
| Internal nodes activity     | Medium     | User specified less than 25% of internal nodes         | Provide missing internal nodes activity with simulation results or by editing the "By Resource Type" views |
| Device models               | High       | Device models are Production                           |                                                                                                            |
|                             |            |                                                        |                                                                                                            |
| Overall confidence level    | Low        |                                                        |                                                                                                            |
+-----------------------------+------------+--------------------------------------------------------+------------------------------------------------------------------------------------------------------------+


2. Settings
-----------

2.1 Environment
---------------

+-----------------------+--------------------------+
| Ambient Temp (C)      | 25.0                     |
| ThetaJA (C/W)         | 1.0                      |
| Airflow (LFM)         | 250                      |
| Heat Sink             | medium (Medium Profile)  |
| ThetaSA (C/W)         | 1.5                      |
| Board Selection       | medium (10"x10")         |
| # of Board Layers     | 12to15 (12 to 15 Layers) |
| Board Temperature (C) | 25.0                     |
+-----------------------+--------------------------+


2.2 Clock Constraints
---------------------

+-------------------------------------+---------------------------------------------------------------------+-----------------+
| Clock                               | Domain                                                              | Constraint (ns) |
+-------------------------------------+---------------------------------------------------------------------+-----------------+
| clk_out1_manycore_3x3_dia_clk_wiz_0 | manycore_3x3_dia_i/clk_wiz/inst/clk_out1_manycore_3x3_dia_clk_wiz_0 |            10.0 |
| clk_pl_0                            | manycore_3x3_dia_i/zynq_ultra_ps_e_0/U0/pl_clk0                     |            10.0 |
| clk_pl_0                            | manycore_3x3_dia_i/zynq_ultra_ps_e_0/U0/pl_clk_unbuffered[0]        |            10.0 |
+-------------------------------------+---------------------------------------------------------------------+-----------------+


3. Detailed Reports
-------------------

3.1 By Hierarchy
----------------

+--------------------------+-----------+
| Name                     | Power (W) |
+--------------------------+-----------+
| manycore_3x3_dia_wrapper |     3.341 |
|   manycore_3x3_dia_i     |     3.341 |
|     clk_wiz              |     0.098 |
|       inst               |     0.098 |
|     manycore_3x3_0       |     0.531 |
|       U0                 |     0.531 |
|     ps8_0_axi_periph     |     0.030 |
|       m00_couplers       |     0.002 |
|       m01_couplers       |     0.002 |
|       m02_couplers       |     0.002 |
|       m03_couplers       |     0.002 |
|       m04_couplers       |     0.002 |
|       m05_couplers       |     0.002 |
|       m06_couplers       |     0.002 |
|       m07_couplers       |     0.002 |
|       m08_couplers       |     0.002 |
|       s00_couplers       |     0.012 |
|       xbar               |     0.002 |
|     zynq_ultra_ps_e_0    |     2.677 |
|       U0                 |     2.677 |
+--------------------------+-----------+


